{
  "version": 0.1,
  "configuration": {
    "title": "Nested Pie",
    "legend_titles": [
      "Legend1",
      "Legend2",
      "Legend3",
      "Legend4"
    ]
  },
  "data": [
    {
      "name": "impact_category_1",
      "children": [
        {
          "name": "system_area_1",
          "children": [
            {
              "name": "foreground_process_1",
              "children": [
                {
                  "name": "background_process_1",
                  "children": [
                    {
                      "name": "stressor_1",
                      "value": 2.34
                    },
                    {
                      "name": "stressor_2",
                      "value": 4.56
                    }
                  ]
                },
                {
                  "name": "background_process_2",
                  "children": [
                    {
                      "name": "stressor_1",
                      "value": 2.34
                    },
                    {
                      "name": "stressor_2",
                      "value": 4.56
                    }
                  ]
                }
              ]
            },
            {
              "name": "foreground_process_2",
              "children": [
                {
                  "name": "background_process_1",
                  "children": [
                    {
                      "name": "stressor_1",
                      "value": 2.34
                    },
                    {
                      "name": "stressor_2",
                      "value": 4.56
                    }
                  ]
                },
                {
                  "name": "background_process_2",
                  "children": [
                    {
                      "name": "stressor_1",
                      "value": 2.34
                    },
                    {
                      "name": "stressor_2",
                      "value": 4.56
                    }
                  ]
                }
              ]
            }
          ]
        },
        {
          "name": "system_area_2",
          "children": [
            {
              "name": "foreground_process_1",
              "children": [
                {
                  "name": "background_process_1",
                  "children": [
                    {
                      "name": "stressor_1",
                      "value": 2.34
                    },
                    {
                      "name": "stressor_2",
                      "value": 4.56
                    }
                  ]
                },
                {
                  "name": "background_process_2",
                  "children": [
                    {
                      "name": "stressor_1",
                      "value": 2.34
                    },
                    {
                      "name": "stressor_2",
                      "value": 4.56
                    }
                  ]
                }
              ]
            },
            {
              "name": "foreground_process_2",
              "children": [
                {
                  "name": "background_process_1",
                  "children": [
                    {
                      "name": "stressor_1",
                      "value": 2.34
                    },
                    {
                      "name": "stressor_2",
                      "value": 4.56
                    }
                  ]
                },
                {
                  "name": "background_process_2",
                  "children": [
                    {
                      "name": "stressor_1",
                      "value": 2.34
                    },
                    {
                      "name": "stressor_2",
                      "value": 4.56
                    }
                  ]
                }
              ]
            }
          ]
        }
      ]
    },
    {
      "name": "impact_category_2",
      "children": [
        {
          "name": "system_area_1_imp2",
          "children": [
            {
              "name": "foreground_process_1_imp2",
              "children": [
                {
                  "name": "background_process_1_imp2",
                  "children": [
                    {
                      "name": "stressor_1_imp2",
                      "value": 5.55
                    },
                    {
                      "name": "stressor_2_imp2",
                      "value": 11.3
                    }
                  ]
                },
                {
                  "name": "background_process_2_imp2",
                  "children": [
                    {
                      "name": "stressor_1_imp2",
                      "value": 1.23
                    },
                    {
                      "name": "stressor_2_imp2",
                      "value": 0.16
                    }
                  ]
                }
              ]
            },
            {
              "name": "foreground_process_2_imp2",
              "children": [
                {
                  "name": "background_process_1_imp2",
                  "children": [
                    {
                      "name": "stressor_1_imp2",
                      "value": 1.12
                    },
                    {
                      "name": "stressor_2_imp2",
                      "value": 12.1
                    }
                  ]
                },
                {
                  "name": "background_process_2_imp2",
                  "children": [
                    {
                      "name": "stressor_1_imp2",
                      "value": 3.45
                    },
                    {
                      "name": "stressor_2_imp2",
                      "value": 5.43
                    }
                  ]
                }
              ]
            }
          ]
        },
        {
          "name": "system_area_2_imp2",
          "children": [
            {
              "name": "foreground_process_1_imp2",
              "children": [
                {
                  "name": "background_process_1_imp2",
                  "children": [
                    {
                      "name": "stressor_1_imp2",
                      "value": 2.55
                    },
                    {
                      "name": "stressor_2_imp2",
                      "value": 1.11
                    }
                  ]
                },
                {
                  "name": "background_process_2_imp2",
                  "children": [
                    {
                      "name": "stressor_1_imp2",
                      "value": 2
                    },
                    {
                      "name": "stressor_2_imp2",
                      "value": 4.5
                    }
                  ]
                }
              ]
            },
            {
              "name": "foreground_process_2_imp2",
              "children": [
                {
                  "name": "background_process_1_imp2",
                  "children": [
                    {
                      "name": "stressor_1_imp2",
                      "value": 1.1
                    },
                    {
                      "name": "stressor_2_imp2",
                      "value": 3.01
                    }
                  ]
                },
                {
                  "name": "background_process_2_imp2",
                  "children": [
                    {
                      "name": "stressor_1_imp2",
                      "value": 2.98
                    },
                    {
                      "name": "stressor_2_imp2",
                      "value": 1.23
                    }
                  ]
                }
              ]
            }
          ]
        }
      ]
    }
  ]
}
